…
```r
activity$date <- as.POSIXct(activity$date)
activity$dayType  <- ifelse(weekdays(activity$date) %in% c(weekdays(as.POSIXct("2020-06-06")),weekdays(as.POSIXct("2020-06-06"))), "weekend", "weekday")

activity$dayType  <- as.factor(activity$dayType)
q  <- activity %>% 
      group_by(dayType, interval) %>% 
      summarise(daily_step_count = sum(steps),.groups = 'drop')
q
```

```
## # A tibble: 576 x 3
##    dayType interval daily_step_count
##    <fct>      <int>            <dbl>
##  1 weekday        0              295
##  2 weekday        5              286
##  3 weekday       10              438
##  4 weekday       15              252
##  5 weekday       20              277
##  6 weekday       25              276
##  7 weekday       30              301
##  8 weekday       35              363
##  9 weekday       40              381
## 10 weekday       45              260
## # … with 566 more rows
```
…
